sifra,lozinka,Ime profesora,Prezime profesora,Email profesora,Termin konsultacija
111,marko,Marko,Marković,mmarkovic@singidunum.ac.rs,petak u 8
222,janko,Janko,Janković,jjankovic@singidunum.ac.rs,ponedeljkom u 13-14
333,sava,Sava,Savanović,ssavanovic@singidunum.ac.rs,utorkom u 15-16
444,laza,Laza,Lazarević,llazarevic@singidunum.ac.rs,četvrtkom u 18-19
555,sandra,Sandra,Sandrić,ssandric@singidunum.ac.rs,petkom u 9-10
787,jjjj,maijo,kkk,bjb,jjjj
aaa,aaa,aaa,aaa,aaa,aaa
